%YAML 1.1
%TAG !u! tag:unity3d.com,2011:
--- !u!1045 &1
EditorBuildSettings:
  m_ObjectHideFlags: 0
  serializedVersion: 2
  m_Scenes:
  - enabled: 1
    path: Assets/Scenes/SplashScene.unity
    guid: 47009977d058c42adb1a0dab2db2e2b0
  - enabled: 1
    path: Assets/Scenes/SignUpScene.unity
    guid: b9cd0bb2c39194a97bf684e7b4ddef21
  - enabled: 1
    path: Assets/Scenes/SignInScene.unity
    guid: 0e63479209d794b0d9fda5073b5e2b4e
  - enabled: 1
    path: Assets/Scenes/OtpVerifyScene.unity
    guid: d4ff0e729730448d48e2eda2f5033af4
  - enabled: 1
    path: Assets/Scenes/HomeScene.unity
    guid: 3fc8acdd13e6c734bafef6554d6fdbcd
  - enabled: 1
    path: Assets/Scenes/ProfileScene.unity
    guid: 61b47b9c2762041a6903cc4290614f55
  - enabled: 1
    path: Assets/Scenes/EditProfileScene.unity
    guid: b1ab1369033024d27a971d37dc558292
  - enabled: 1
    path: Assets/Scenes/BeginnerLevel.unity
    guid: 26be8ed46f0cf4d649d6a4d3293cf363
  - enabled: 1
    path: Assets/Scenes/AdvanceLevel.unity
    guid: 6f8541e9d7845405b983edbdc520b29f
  - enabled: 1
    path: Assets/Scenes/MediumLevel.unity
    guid: 222656efcb71746c593028e78ec82805
  m_configObjects:
    com.unity.adaptiveperformance.loader_settings: {fileID: 11400000, guid: a9d5f4a2e654b44c0a29421893773da9, type: 2}
    com.unity.adaptiveperformance.simulator.provider_settings: {fileID: 11400000, guid: cf1546f7739774e2ab492d1529a472e4, type: 2}
